{
    "bWF0cmljb2xhcHJvZmVzc29yZQ==": {
        "partecipanti": [
            "matricola",
            "professore"
        ],
        "tipo": "PRIVATO"
    },
    "d3566e34-3baf-477c-aef5-15e7d35bb1d7": {
        "partecipanti": [
            "matricola",
            "professore2",
            "vr_mario"
        ],
        "tipo": "BROADCAST",
        "label": "broadcast1"
    },
    "cHJvZmVzc29yZXZyX21hcmlv": {
        "partecipanti": [
            "vr_mario",
            "professore"
        ],
        "tipo": "PRIVATO"
    },
    "cHJvZmVzc29yZXByb2Zlc3NvcmUy": {
        "partecipanti": [
            "professore2",
            "professore"
        ],
        "tipo": "PRIVATO"
    }
}