<?xml version="1.0" encoding="UTF-8" standalone="no"?>
<graphml xmlns="http://graphml.graphdrawing.org/xmlns" xmlns:java="http://www.yworks.com/xml/yfiles-common/1.0/java" xmlns:sys="http://www.yworks.com/xml/yfiles-common/markup/primitives/2.0" xmlns:x="http://www.yworks.com/xml/yfiles-common/markup/2.0" xmlns:xsi="http://www.w3.org/2001/XMLSchema-instance" xmlns:y="http://www.yworks.com/xml/graphml" xmlns:yed="http://www.yworks.com/xml/yed/3" xsi:schemaLocation="http://graphml.graphdrawing.org/xmlns http://www.yworks.com/xml/schema/graphml/1.1/ygraphml.xsd">
  <!--Created by yEd 3.20-->
  <key attr.name="Description" attr.type="string" for="graph" id="d0"/>
  <key for="port" id="d1" yfiles.type="portgraphics"/>
  <key for="port" id="d2" yfiles.type="portgeometry"/>
  <key for="port" id="d3" yfiles.type="portuserdata"/>
  <key attr.name="url" attr.type="string" for="node" id="d4"/>
  <key attr.name="description" attr.type="string" for="node" id="d5"/>
  <key for="node" id="d6" yfiles.type="nodegraphics"/>
  <key for="graphml" id="d7" yfiles.type="resources"/>
  <key attr.name="url" attr.type="string" for="edge" id="d8"/>
  <key attr.name="description" attr.type="string" for="edge" id="d9"/>
  <key for="edge" id="d10" yfiles.type="edgegraphics"/>
  <graph edgedefault="directed" id="G">
    <data key="d0" xml:space="preserve"/>
    <node id="n0">
      <data key="d4" xml:space="preserve"/>
      <data key="d6">
        <y:ShapeNode>
          <y:Geometry height="280.07170774923145" width="19.952000000000055" x="-24.663500000000028" y="489.8418413296585"/>
          <y:Fill color="#FFFFFF" transparent="false"/>
          <y:BorderStyle color="#000000" raised="false" type="line" width="1.0"/>
          <y:NodeLabel alignment="center" autoSizePolicy="content" fontFamily="Dialog" fontSize="12" fontStyle="plain" hasBackgroundColor="false" hasLineColor="false" hasText="false" height="4.0" horizontalTextPosition="center" iconTextGap="4" modelName="internal" modelPosition="c" textColor="#000000" verticalTextPosition="bottom" visible="true" width="4.0" x="7.9760000000000275" y="138.03585387461573"/>
          <y:Shape type="rectangle"/>
        </y:ShapeNode>
      </data>
    </node>
    <node id="n1">
      <data key="d4" xml:space="preserve"/>
      <data key="d6">
        <y:ShapeNode>
          <y:Geometry height="280.07170774923145" width="19.952000000000055" x="-273.3293759999999" y="491.7618413296586"/>
          <y:Fill color="#FFFFFF" transparent="false"/>
          <y:BorderStyle color="#000000" raised="false" type="line" width="1.0"/>
          <y:NodeLabel alignment="center" autoSizePolicy="content" fontFamily="Dialog" fontSize="12" fontStyle="plain" hasBackgroundColor="false" hasLineColor="false" hasText="false" height="4.0" horizontalTextPosition="center" iconTextGap="4" modelName="internal" modelPosition="c" textColor="#000000" verticalTextPosition="bottom" visible="true" width="4.0" x="7.975999999999999" y="138.03585387461573"/>
          <y:Shape type="rectangle"/>
        </y:ShapeNode>
      </data>
    </node>
    <node id="n2">
      <data key="d4" xml:space="preserve"/>
      <data key="d6">
        <y:SVGNode>
          <y:Geometry height="100.0" width="60.0" x="-293.3533759999999" y="148.6978240000003"/>
          <y:Fill color="#FFCC00" transparent="false"/>
          <y:BorderStyle color="#000000" type="line" width="1.0"/>
          <y:NodeLabel alignment="center" autoSizePolicy="content" fontFamily="Inter" fontSize="13" fontStyle="plain" hasBackgroundColor="false" hasLineColor="false" height="19.733028411865234" horizontalTextPosition="center" iconTextGap="4" modelName="custom" textColor="#000000" verticalTextPosition="bottom" visible="true" width="60.1181640625" x="-0.05908203125" xml:space="preserve" y="104.0">Studente<y:LabelModel><y:SmartNodeLabelModel distance="4.0"/></y:LabelModel><y:ModelParameter><y:SmartNodeLabelModelParameter labelRatioX="0.0" labelRatioY="-0.5" nodeRatioX="0.0" nodeRatioY="0.5" offsetX="0.0" offsetY="4.0" upX="0.0" upY="-1.0"/></y:ModelParameter></y:NodeLabel>
          <y:SVGNodeProperties usingVisualBounds="false"/>
          <y:SVGModel svgBoundsPolicy="0">
            <y:SVGContent refid="1"/>
          </y:SVGModel>
        </y:SVGNode>
      </data>
    </node>
    <node id="n3">
      <data key="d4" xml:space="preserve"/>
      <data key="d6">
        <y:ShapeNode>
          <y:Geometry height="41.27999999999997" width="73.71200000000005" x="-51.54350000000002" y="207.41782400000034"/>
          <y:Fill color="#FFFFFF" transparent="false"/>
          <y:BorderStyle color="#000000" raised="false" type="line" width="1.0"/>
          <y:NodeLabel alignment="center" autoSizePolicy="content" fontFamily="Inter" fontSize="12" fontStyle="plain" hasBackgroundColor="false" hasLineColor="false" height="18.522357940673828" horizontalTextPosition="center" iconTextGap="4" modelName="custom" textColor="#000000" verticalTextPosition="bottom" visible="true" width="49.32270812988281" x="12.194645935058617" xml:space="preserve" y="11.378821029663072">Sistema<y:LabelModel><y:SmartNodeLabelModel distance="4.0"/></y:LabelModel><y:ModelParameter><y:SmartNodeLabelModelParameter labelRatioX="0.0" labelRatioY="0.0" nodeRatioX="0.0" nodeRatioY="0.0" offsetX="0.0" offsetY="0.0" upX="0.0" upY="-1.0"/></y:ModelParameter></y:NodeLabel>
          <y:Shape type="rectangle"/>
        </y:ShapeNode>
      </data>
    </node>
    <node id="n4">
      <data key="d4" xml:space="preserve"/>
      <data key="d6">
        <y:ShapeNode>
          <y:Geometry height="41.27999999999997" width="19.952000000000055" x="-273.3293759999999" y="315.19750000000005"/>
          <y:Fill color="#FFFFFF" transparent="false"/>
          <y:BorderStyle color="#000000" raised="false" type="line" width="1.0"/>
          <y:NodeLabel alignment="center" autoSizePolicy="content" fontFamily="Inter" fontSize="12" fontStyle="plain" hasBackgroundColor="false" hasLineColor="false" hasText="false" height="4.0" horizontalTextPosition="center" iconTextGap="4" modelName="custom" textColor="#000000" verticalTextPosition="bottom" visible="true" width="4.0" x="7.975999999999999" y="18.639999999999986">
            <y:LabelModel>
              <y:SmartNodeLabelModel distance="4.0"/>
            </y:LabelModel>
            <y:ModelParameter>
              <y:SmartNodeLabelModelParameter labelRatioX="0.0" labelRatioY="0.0" nodeRatioX="0.0" nodeRatioY="0.0" offsetX="0.0" offsetY="0.0" upX="0.0" upY="-1.0"/>
            </y:ModelParameter>
          </y:NodeLabel>
          <y:Shape type="rectangle"/>
        </y:ShapeNode>
      </data>
    </node>
    <node id="n5">
      <data key="d4" xml:space="preserve"/>
      <data key="d6">
        <y:ShapeNode>
          <y:Geometry height="41.27999999999997" width="19.952000000000055" x="-24.663500000000028" y="315.19750000000005"/>
          <y:Fill color="#FFFFFF" transparent="false"/>
          <y:BorderStyle color="#000000" raised="false" type="line" width="1.0"/>
          <y:NodeLabel alignment="center" autoSizePolicy="content" fontFamily="Inter" fontSize="12" fontStyle="plain" hasBackgroundColor="false" hasLineColor="false" hasText="false" height="4.0" horizontalTextPosition="center" iconTextGap="4" modelName="custom" textColor="#000000" verticalTextPosition="bottom" visible="true" width="4.0" x="7.9760000000000275" y="18.639999999999986">
            <y:LabelModel>
              <y:SmartNodeLabelModel distance="4.0"/>
            </y:LabelModel>
            <y:ModelParameter>
              <y:SmartNodeLabelModelParameter labelRatioX="0.0" labelRatioY="0.0" nodeRatioX="0.0" nodeRatioY="0.0" offsetX="0.0" offsetY="0.0" upX="0.0" upY="-1.0"/>
            </y:ModelParameter>
          </y:NodeLabel>
          <y:Shape type="rectangle"/>
        </y:ShapeNode>
      </data>
    </node>
    <node id="n6">
      <data key="d4" xml:space="preserve"/>
      <data key="d6">
        <y:ShapeNode>
          <y:Geometry height="41.27999999999997" width="19.952000000000055" x="-273.3293759999999" y="402.5196706648293"/>
          <y:Fill color="#FFFFFF" transparent="false"/>
          <y:BorderStyle color="#000000" raised="false" type="line" width="1.0"/>
          <y:NodeLabel alignment="center" autoSizePolicy="content" fontFamily="Inter" fontSize="12" fontStyle="plain" hasBackgroundColor="false" hasLineColor="false" hasText="false" height="4.0" horizontalTextPosition="center" iconTextGap="4" modelName="custom" textColor="#000000" verticalTextPosition="bottom" visible="true" width="4.0" x="7.975999999999999" y="18.639999999999986">
            <y:LabelModel>
              <y:SmartNodeLabelModel distance="4.0"/>
            </y:LabelModel>
            <y:ModelParameter>
              <y:SmartNodeLabelModelParameter labelRatioX="0.0" labelRatioY="0.0" nodeRatioX="0.0" nodeRatioY="0.0" offsetX="0.0" offsetY="0.0" upX="0.0" upY="-1.0"/>
            </y:ModelParameter>
          </y:NodeLabel>
          <y:Shape type="rectangle"/>
        </y:ShapeNode>
      </data>
    </node>
    <node id="n7">
      <data key="d4" xml:space="preserve"/>
      <data key="d6">
        <y:ShapeNode>
          <y:Geometry height="41.27999999999997" width="19.952000000000055" x="-24.663500000000028" y="402.5196706648293"/>
          <y:Fill color="#FFFFFF" transparent="false"/>
          <y:BorderStyle color="#000000" raised="false" type="line" width="1.0"/>
          <y:NodeLabel alignment="center" autoSizePolicy="content" fontFamily="Inter" fontSize="12" fontStyle="plain" hasBackgroundColor="false" hasLineColor="false" hasText="false" height="4.0" horizontalTextPosition="center" iconTextGap="4" modelName="custom" textColor="#000000" verticalTextPosition="bottom" visible="true" width="4.0" x="7.9760000000000275" y="18.639999999999986">
            <y:LabelModel>
              <y:SmartNodeLabelModel distance="4.0"/>
            </y:LabelModel>
            <y:ModelParameter>
              <y:SmartNodeLabelModelParameter labelRatioX="0.0" labelRatioY="0.0" nodeRatioX="0.0" nodeRatioY="0.0" offsetX="0.0" offsetY="0.0" upX="0.0" upY="-1.0"/>
            </y:ModelParameter>
          </y:NodeLabel>
          <y:Shape type="rectangle"/>
        </y:ShapeNode>
      </data>
    </node>
    <node id="n8">
      <data key="d4" xml:space="preserve"/>
      <data key="d6">
        <y:ShapeNode>
          <y:Geometry height="41.27999999999997" width="19.952000000000055" x="-263.16641637248017" y="523.0071060895289"/>
          <y:Fill color="#FFFFFF" transparent="false"/>
          <y:BorderStyle color="#000000" raised="false" type="line" width="1.0"/>
          <y:NodeLabel alignment="center" autoSizePolicy="content" fontFamily="Dialog" fontSize="12" fontStyle="plain" hasBackgroundColor="false" hasLineColor="false" hasText="false" height="4.0" horizontalTextPosition="center" iconTextGap="4" modelName="internal" modelPosition="c" textColor="#000000" verticalTextPosition="bottom" visible="true" width="4.0" x="7.9760000000000275" y="18.639999999999986"/>
          <y:Shape type="rectangle"/>
        </y:ShapeNode>
      </data>
    </node>
    <node id="n9">
      <data key="d4" xml:space="preserve"/>
      <data key="d6">
        <y:ShapeNode>
          <y:Geometry height="41.27999999999997" width="19.952000000000055" x="-15.124832744960315" y="649.8163633633184"/>
          <y:Fill color="#FFFFFF" transparent="false"/>
          <y:BorderStyle color="#000000" raised="false" type="line" width="1.0"/>
          <y:NodeLabel alignment="center" autoSizePolicy="content" fontFamily="Dialog" fontSize="12" fontStyle="plain" hasBackgroundColor="false" hasLineColor="false" hasText="false" height="4.0" horizontalTextPosition="center" iconTextGap="4" modelName="internal" modelPosition="c" textColor="#000000" verticalTextPosition="bottom" visible="true" width="4.0" x="7.9760000000000275" y="18.639999999999986"/>
          <y:Shape type="rectangle"/>
        </y:ShapeNode>
      </data>
    </node>
    <node id="n10">
      <data key="d4" xml:space="preserve"/>
      <data key="d6">
        <y:ShapeNode>
          <y:Geometry height="16.0" width="16.0" x="-325.8588812316716" y="772.319013929619"/>
          <y:Fill hasColor="false" transparent="false"/>
          <y:BorderStyle hasColor="false" raised="false" type="line" width="1.0"/>
          <y:NodeLabel alignment="center" autoSizePolicy="content" fontFamily="Dialog" fontSize="12" fontStyle="plain" hasBackgroundColor="false" hasLineColor="false" hasText="false" height="4.0" horizontalTextPosition="center" iconTextGap="4" modelName="custom" textColor="#000000" verticalTextPosition="bottom" visible="false" width="4.0" x="6.0" y="6.0">
            <y:LabelModel>
              <y:SmartNodeLabelModel distance="4.0"/>
            </y:LabelModel>
            <y:ModelParameter>
              <y:SmartNodeLabelModelParameter labelRatioX="0.0" labelRatioY="0.0" nodeRatioX="0.0" nodeRatioY="0.0" offsetX="0.0" offsetY="0.0" upX="0.0" upY="-1.0"/>
            </y:ModelParameter>
          </y:NodeLabel>
          <y:Shape type="rectangle"/>
        </y:ShapeNode>
      </data>
    </node>
    <node id="n11">
      <data key="d4" xml:space="preserve"/>
      <data key="d6">
        <y:ShapeNode>
          <y:Geometry height="16.0" width="16.0" x="-272.68744021260983" y="801.83354907889"/>
          <y:Fill hasColor="false" transparent="false"/>
          <y:BorderStyle hasColor="false" raised="false" type="line" width="1.0"/>
          <y:NodeLabel alignment="center" autoSizePolicy="content" fontFamily="Dialog" fontSize="12" fontStyle="plain" hasBackgroundColor="false" hasLineColor="false" hasText="false" height="4.0" horizontalTextPosition="center" iconTextGap="4" modelName="custom" textColor="#000000" verticalTextPosition="bottom" visible="false" width="4.0" x="6.0" y="6.0">
            <y:LabelModel>
              <y:SmartNodeLabelModel distance="4.0"/>
            </y:LabelModel>
            <y:ModelParameter>
              <y:SmartNodeLabelModelParameter labelRatioX="0.0" labelRatioY="0.0" nodeRatioX="0.0" nodeRatioY="0.0" offsetX="0.0" offsetY="0.0" upX="0.0" upY="-1.0"/>
            </y:ModelParameter>
          </y:NodeLabel>
          <y:Shape type="rectangle"/>
        </y:ShapeNode>
      </data>
    </node>
    <node id="n12">
      <data key="d4" xml:space="preserve"/>
      <data key="d6">
        <y:ShapeNode>
          <y:Geometry height="16.0" width="16.0" x="-24.01084197214061" y="801.83354907889"/>
          <y:Fill hasColor="false" transparent="false"/>
          <y:BorderStyle hasColor="false" raised="false" type="line" width="1.0"/>
          <y:NodeLabel alignment="center" autoSizePolicy="content" fontFamily="Dialog" fontSize="12" fontStyle="plain" hasBackgroundColor="false" hasLineColor="false" hasText="false" height="4.0" horizontalTextPosition="center" iconTextGap="4" modelName="custom" textColor="#000000" verticalTextPosition="bottom" visible="false" width="4.0" x="6.0" y="6.0">
            <y:LabelModel>
              <y:SmartNodeLabelModel distance="4.0"/>
            </y:LabelModel>
            <y:ModelParameter>
              <y:SmartNodeLabelModelParameter labelRatioX="0.0" labelRatioY="0.0" nodeRatioX="0.0" nodeRatioY="0.0" offsetX="0.0" offsetY="0.0" upX="0.0" upY="-1.0"/>
            </y:ModelParameter>
          </y:NodeLabel>
          <y:Shape type="rectangle"/>
        </y:ShapeNode>
      </data>
    </node>
    <node id="n13">
      <data key="d4" xml:space="preserve"/>
      <data key="d6">
        <y:ShapeNode>
          <y:Geometry height="16.0" width="16.0" x="31.068913613959865" y="772.319013929619"/>
          <y:Fill hasColor="false" transparent="false"/>
          <y:BorderStyle hasColor="false" raised="false" type="line" width="1.0"/>
          <y:NodeLabel alignment="center" autoSizePolicy="content" fontFamily="Dialog" fontSize="12" fontStyle="plain" hasBackgroundColor="false" hasLineColor="false" hasText="false" height="4.0" horizontalTextPosition="center" iconTextGap="4" modelName="custom" textColor="#000000" verticalTextPosition="bottom" visible="false" width="4.0" x="6.0" y="6.0">
            <y:LabelModel>
              <y:SmartNodeLabelModel distance="4.0"/>
            </y:LabelModel>
            <y:ModelParameter>
              <y:SmartNodeLabelModelParameter labelRatioX="0.0" labelRatioY="0.0" nodeRatioX="0.0" nodeRatioY="0.0" offsetX="0.0" offsetY="0.0" upX="0.0" upY="-1.0"/>
            </y:ModelParameter>
          </y:NodeLabel>
          <y:Shape type="rectangle"/>
        </y:ShapeNode>
      </data>
    </node>
    <edge id="e0" source="n4" target="n5">
      <data key="d8" xml:space="preserve"/>
      <data key="d10">
        <y:PolyLineEdge>
          <y:Path sx="10.013969227971387" sy="-14.788230958084085" tx="-10.01199999999989" ty="-14.788230958084085"/>
          <y:LineStyle color="#000000" type="line" width="1.0"/>
          <y:Arrows source="none" target="delta"/>
          <y:EdgeLabel alignment="center" configuration="AutoFlippingLabel" distance="2.0" fontFamily="Inter" fontSize="12" fontStyle="plain" hasBackgroundColor="false" hasLineColor="false" height="18.522357940673828" horizontalTextPosition="center" iconTextGap="4" modelName="side_slider" ratio="0.5" textColor="#000000" verticalTextPosition="bottom" visible="true" width="127.03096008300781" x="50.803483203613325" xml:space="preserve" y="-20.5223442698516">mostra insegnamento<y:PreferredPlacementDescriptor angle="0.0" angleOffsetOnRightSide="0" angleReference="absolute" angleRotationOnRightSide="co" distance="-1.0" placement="center" side="left|right" sideReference="relative_to_edge_flow"/></y:EdgeLabel>
          <y:BendStyle smoothed="true"/>
        </y:PolyLineEdge>
      </data>
    </edge>
    <edge id="e1" source="n2" target="n4">
      <data key="d8" xml:space="preserve"/>
      <data key="d10">
        <y:PolyLineEdge>
          <y:Path sx="0.0" sy="79.85151424895975" tx="0.0" ty="-6.196973493975878"/>
          <y:LineStyle color="#000000" type="dashed" width="1.0"/>
          <y:Arrows source="none" target="none"/>
          <y:BendStyle smoothed="true"/>
        </y:PolyLineEdge>
      </data>
    </edge>
    <edge id="e2" source="n3" target="n5">
      <data key="d8" xml:space="preserve"/>
      <data key="d10">
        <y:PolyLineEdge>
          <y:Path sx="0.0" sy="0.0" tx="0.0" ty="0.0"/>
          <y:LineStyle color="#000000" type="dashed" width="1.0"/>
          <y:Arrows source="none" target="none"/>
          <y:BendStyle smoothed="true"/>
        </y:PolyLineEdge>
      </data>
    </edge>
    <edge id="e3" source="n5" target="n4">
      <data key="d8" xml:space="preserve"/>
      <data key="d10">
        <y:PolyLineEdge>
          <y:Path sx="-6.876335380479986" sy="12.563153560736236" tx="0.0" ty="12.563153560736236"/>
          <y:LineStyle color="#000000" type="dashed" width="1.0"/>
          <y:Arrows source="none" target="plain"/>
          <y:EdgeLabel alignment="center" configuration="AutoFlippingLabel" distance="2.0" fontFamily="Inter" fontSize="12" fontStyle="plain" hasBackgroundColor="false" hasLineColor="false" height="18.522357940673828" horizontalTextPosition="center" iconTextGap="4" modelName="side_slider" ratio="0.5" textColor="#000000" verticalTextPosition="bottom" visible="true" width="147.4168243408203" x="-188.0659053767089" xml:space="preserve" y="1.9999882775331344">schermata insegnamento<y:PreferredPlacementDescriptor angle="0.0" angleOffsetOnRightSide="0" angleReference="absolute" angleRotationOnRightSide="co" distance="-1.0" placement="center" side="left|right" sideReference="relative_to_edge_flow"/></y:EdgeLabel>
          <y:BendStyle smoothed="true"/>
        </y:PolyLineEdge>
      </data>
    </edge>
    <edge id="e4" source="n4" target="n6">
      <data key="d8" xml:space="preserve"/>
      <data key="d10">
        <y:PolyLineEdge>
          <y:Path sx="0.0" sy="0.0" tx="0.0" ty="0.0"/>
          <y:LineStyle color="#000000" type="dashed" width="1.0"/>
          <y:Arrows source="none" target="none"/>
          <y:BendStyle smoothed="true"/>
        </y:PolyLineEdge>
      </data>
    </edge>
    <edge id="e5" source="n5" target="n7">
      <data key="d8" xml:space="preserve"/>
      <data key="d10">
        <y:PolyLineEdge>
          <y:Path sx="0.0" sy="0.0" tx="0.0" ty="0.0"/>
          <y:LineStyle color="#000000" type="dashed" width="1.0"/>
          <y:Arrows source="none" target="none"/>
          <y:BendStyle smoothed="true"/>
        </y:PolyLineEdge>
      </data>
    </edge>
    <edge id="e6" source="n6" target="n7">
      <data key="d8" xml:space="preserve"/>
      <data key="d10">
        <y:PolyLineEdge>
          <y:Path sx="5.109540619519976" sy="-13.36875180722893" tx="0.0" ty="-13.36875180722893"/>
          <y:LineStyle color="#000000" type="line" width="1.0"/>
          <y:Arrows source="none" target="delta"/>
          <y:EdgeLabel alignment="center" configuration="AutoFlippingLabel" distance="2.0" fontFamily="Inter" fontSize="12" fontStyle="plain" hasBackgroundColor="false" hasLineColor="false" height="18.522357940673828" horizontalTextPosition="center" iconTextGap="4" modelName="side_slider" ratio="0.5" textColor="#000000" verticalTextPosition="bottom" visible="true" width="92.80453491210938" x="67.9749843632813" xml:space="preserve" y="-20.52236315533912">mostra compito<y:PreferredPlacementDescriptor angle="0.0" angleOffsetOnRightSide="0" angleReference="absolute" angleRotationOnRightSide="co" distance="-1.0" placement="center" side="left|right" sideReference="relative_to_edge_flow"/></y:EdgeLabel>
          <y:BendStyle smoothed="true"/>
        </y:PolyLineEdge>
      </data>
    </edge>
    <edge id="e7" source="n7" target="n6">
      <data key="d8" xml:space="preserve"/>
      <data key="d10">
        <y:PolyLineEdge>
          <y:Path sx="-6.756335380479925" sy="11.299778313253004" tx="0.0" ty="11.299778313253004"/>
          <y:LineStyle color="#000000" type="dashed" width="1.0"/>
          <y:Arrows source="none" target="plain"/>
          <y:EdgeLabel alignment="center" configuration="AutoFlippingLabel" distance="2.0" fontFamily="Inter" fontSize="12" fontStyle="plain" hasBackgroundColor="false" hasLineColor="false" height="18.522357940673828" horizontalTextPosition="center" iconTextGap="4" modelName="side_slider" ratio="0.5" textColor="#000000" verticalTextPosition="bottom" visible="true" width="113.19039916992188" x="-170.95303420666497" xml:space="preserve" y="2.000006839410389">schermata compito<y:PreferredPlacementDescriptor angle="0.0" angleOffsetOnRightSide="0" angleReference="absolute" angleRotationOnRightSide="co" distance="-1.0" placement="center" side="left|right" sideReference="relative_to_edge_flow"/></y:EdgeLabel>
          <y:BendStyle smoothed="true"/>
        </y:PolyLineEdge>
      </data>
    </edge>
    <edge id="e8" source="n6" target="n1">
      <data key="d8" xml:space="preserve"/>
      <data key="d10">
        <y:PolyLineEdge>
          <y:Path sx="0.0" sy="0.0" tx="0.0" ty="-43.235853874615714"/>
          <y:LineStyle color="#000000" type="dashed" width="1.0"/>
          <y:Arrows source="none" target="none"/>
          <y:BendStyle smoothed="true"/>
        </y:PolyLineEdge>
      </data>
    </edge>
    <edge id="e9" source="n7" target="n0">
      <data key="d8" xml:space="preserve"/>
      <data key="d10">
        <y:PolyLineEdge>
          <y:Path sx="0.0" sy="0.0" tx="0.0" ty="-43.235853874615714"/>
          <y:LineStyle color="#000000" type="dashed" width="1.0"/>
          <y:Arrows source="none" target="none"/>
          <y:BendStyle smoothed="true"/>
        </y:PolyLineEdge>
      </data>
    </edge>
    <edge id="e10" source="n1" target="n8">
      <data key="d8" xml:space="preserve"/>
      <data key="d10">
        <y:PolyLineEdge>
          <y:Path sx="0.8045778093700164" sy="-127.99053035774773" tx="0.0" ty="-9.947092374328657">
            <y:Point x="-208.50241637247996" y="503.8071648465266"/>
            <y:Point x="-208.50241637247996" y="533.7000137152002"/>
          </y:Path>
          <y:LineStyle color="#000000" type="line" width="1.0"/>
          <y:Arrows source="none" target="delta"/>
          <y:EdgeLabel alignment="center" configuration="AutoFlippingLabel" distance="2.0" fontFamily="Inter" fontSize="12" fontStyle="plain" hasBackgroundColor="false" hasLineColor="false" height="18.522357940673828" horizontalTextPosition="center" iconTextGap="4" modelName="side_slider" ratio="0.5556997750792372" textColor="#000000" verticalTextPosition="bottom" visible="true" width="105.86102294921875" x="46.88910889607473" xml:space="preserve" y="5.685250886698327">apri selettore files<y:PreferredPlacementDescriptor angle="0.0" angleOffsetOnRightSide="0" angleReference="absolute" angleRotationOnRightSide="co" distance="-1.0" placement="center" side="left|right" sideReference="relative_to_edge_flow"/></y:EdgeLabel>
          <y:BendStyle smoothed="true"/>
        </y:PolyLineEdge>
      </data>
    </edge>
    <edge id="e11" source="n8" target="n1">
      <data key="d8" xml:space="preserve"/>
      <data key="d10">
        <y:PolyLineEdge>
          <y:Path sx="2.448000000000178" sy="12.73204015579176" tx="9.966234675282806" ty="-47.51058911474547">
            <y:Point x="-209.14241637247997" y="556.3791462453206"/>
            <y:Point x="-209.14241637247997" y="584.2871060895288"/>
          </y:Path>
          <y:LineStyle color="#000000" type="dashed" width="1.0"/>
          <y:Arrows source="none" target="plain"/>
          <y:EdgeLabel alignment="center" configuration="AutoFlippingLabel" distance="2.0" fontFamily="Inter" fontSize="12" fontStyle="plain" hasBackgroundColor="false" hasLineColor="false" height="18.522357940673828" horizontalTextPosition="center" iconTextGap="4" modelName="side_slider" ratio="0.4422328827869496" textColor="#000000" verticalTextPosition="bottom" visible="true" width="84.52067565917969" x="36.084375009355966" xml:space="preserve" y="4.692796806462866">conferma files<y:PreferredPlacementDescriptor angle="0.0" angleOffsetOnRightSide="0" angleReference="absolute" angleRotationOnRightSide="co" distance="-1.0" placement="center" side="left|right" sideReference="relative_to_edge_flow"/></y:EdgeLabel>
          <y:BendStyle smoothed="true"/>
        </y:PolyLineEdge>
      </data>
    </edge>
    <edge id="e12" source="n1" target="n0">
      <data key="d8" xml:space="preserve"/>
      <data key="d10">
        <y:PolyLineEdge>
          <y:Path sx="10.007442404603978" sy="-12.746469019481651" tx="-9.953897236479992" ty="-10.826469019481578"/>
          <y:LineStyle color="#000000" type="line" width="1.0"/>
          <y:Arrows source="none" target="delta"/>
          <y:EdgeLabel alignment="center" configuration="AutoFlippingLabel" distance="2.0" fontFamily="Inter" fontSize="12" fontStyle="plain" hasBackgroundColor="false" hasLineColor="false" height="18.522357940673828" horizontalTextPosition="center" iconTextGap="4" modelName="side_slider" ratio="0.5" textColor="#000000" verticalTextPosition="bottom" visible="true" width="151.47349548339844" x="38.58874626513676" xml:space="preserve" y="-20.522340251974924">modifica files di consegna<y:PreferredPlacementDescriptor angle="0.0" angleOffsetOnRightSide="0" angleReference="absolute" angleRotationOnRightSide="co" distance="-1.0" placement="center" side="left|right" sideReference="relative_to_edge_flow"/></y:EdgeLabel>
          <y:BendStyle smoothed="true"/>
        </y:PolyLineEdge>
      </data>
    </edge>
    <edge id="e13" source="n0" target="n9">
      <data key="d8" xml:space="preserve"/>
      <data key="d10">
        <y:PolyLineEdge>
          <y:Path sx="4.0541027635200635" sy="8.29910806612611" tx="6.291435508480362" ty="-5.6555600929179946">
            <y:Point x="33.910602763520046" y="638.1768032704003"/>
            <y:Point x="33.910602763520046" y="664.8008032704004"/>
          </y:Path>
          <y:LineStyle color="#000000" type="line" width="1.0"/>
          <y:Arrows source="none" target="delta"/>
          <y:EdgeLabel alignment="center" configuration="AutoFlippingLabel" distance="2.0" fontFamily="Inter" fontSize="12" fontStyle="plain" hasBackgroundColor="false" hasLineColor="false" height="18.522357940673828" horizontalTextPosition="center" iconTextGap="4" modelName="side_slider" ratio="0.5626887825011304" textColor="#000000" verticalTextPosition="bottom" visible="true" width="110.75296020507812" x="40.584500029907986" xml:space="preserve" y="4.0508054524071895">ottieni data attuale<y:PreferredPlacementDescriptor angle="0.0" angleOffsetOnRightSide="0" angleReference="absolute" angleRotationOnRightSide="co" distance="-1.0" placement="center" side="left|right" sideReference="relative_to_edge_flow"/></y:EdgeLabel>
          <y:BendStyle smoothed="true"/>
        </y:PolyLineEdge>
      </data>
    </edge>
    <edge id="e14" source="n9" target="n0">
      <data key="d8" xml:space="preserve"/>
      <data key="d10">
        <y:PolyLineEdge>
          <y:Path sx="5.267435508480361" sy="8.680439907082018" tx="0.0" ty="76.90710806612606">
            <y:Point x="33.910602763520046" y="679.1368032704004"/>
            <y:Point x="33.910602763520046" y="706.7848032704003"/>
          </y:Path>
          <y:LineStyle color="#000000" type="dashed" width="1.0"/>
          <y:Arrows source="none" target="plain"/>
          <y:BendStyle smoothed="true"/>
        </y:PolyLineEdge>
      </data>
    </edge>
    <edge id="e15" source="n0" target="n1">
      <data key="d8" xml:space="preserve"/>
      <data key="d10">
        <y:PolyLineEdge>
          <y:Path sx="-9.996865891299965" sy="106.97908500723042" tx="9.963707048387334" ty="105.05908500723035"/>
          <y:LineStyle color="#000000" type="dashed" width="1.0"/>
          <y:Arrows source="none" target="plain"/>
          <y:EdgeLabel alignment="center" configuration="AutoFlippingLabel" distance="2.0" fontFamily="Inter" fontSize="12" fontStyle="plain" hasBackgroundColor="false" hasLineColor="false" height="18.522357940673828" horizontalTextPosition="center" iconTextGap="4" modelName="side_slider" ratio="0.5" textColor="#000000" verticalTextPosition="bottom" visible="true" width="45.231903076171875" x="-136.9520233118896" xml:space="preserve" y="2.000029723223406">riuscita<y:PreferredPlacementDescriptor angle="0.0" angleOffsetOnRightSide="0" angleReference="absolute" angleRotationOnRightSide="co" distance="-1.0" placement="center" side="left|right" sideReference="relative_to_edge_flow"/></y:EdgeLabel>
          <y:BendStyle smoothed="true"/>
        </y:PolyLineEdge>
      </data>
    </edge>
    <edge id="e16" source="n1" target="n11">
      <data key="d8" xml:space="preserve"/>
      <data key="d10">
        <y:PolyLineEdge>
          <y:Path sx="0.0" sy="44.330597738287565" tx="1.334064212609917" ty="5.168797653959018"/>
          <y:LineStyle color="#000000" type="dashed" width="1.0"/>
          <y:Arrows source="none" target="none"/>
          <y:BendStyle smoothed="true"/>
        </y:PolyLineEdge>
      </data>
    </edge>
    <edge id="e17" source="n0" target="n12">
      <data key="d8" xml:space="preserve"/>
      <data key="d10">
        <y:PolyLineEdge>
          <y:Path sx="0.0" sy="44.330597738287565" tx="1.3233419721406108" ty="0.0"/>
          <y:LineStyle color="#000000" type="dashed" width="1.0"/>
          <y:Arrows source="none" target="none"/>
          <y:BendStyle smoothed="true"/>
        </y:PolyLineEdge>
      </data>
    </edge>
  </graph>
  <data key="d7">
    <y:Resources>
      <y:Resource id="1" xml:space="preserve">&lt;?xml version="1.0" encoding="UTF-8" standalone="no"?&gt;
&lt;!-- Created with Inkscape (http://www.inkscape.org/) --&gt;
&lt;svg
   xmlns:dc="http://purl.org/dc/elements/1.1/"
   xmlns:cc="http://web.resource.org/cc/"
   xmlns:rdf="http://www.w3.org/1999/02/22-rdf-syntax-ns#"
   xmlns:svg="http://www.w3.org/2000/svg"
   xmlns="http://www.w3.org/2000/svg"
   xmlns:sodipodi="http://sodipodi.sourceforge.net/DTD/sodipodi-0.dtd"
   xmlns:inkscape="http://www.inkscape.org/namespaces/inkscape"
   width="41"
   height="68.997391"
   id="svg2"
   sodipodi:version="0.32"
   inkscape:version="0.45.1"
   sodipodi:docbase="C:\Daten\alberts\projects\yfx"
   sodipodi:docname="uml_actor.svg"
   inkscape:output_extension="org.inkscape.output.svg.inkscape"
   version="1.0"&gt;
  &lt;defs
     id="defs4" /&gt;
  &lt;sodipodi:namedview
     id="base"
     pagecolor="#ffffff"
     bordercolor="#666666"
     borderopacity="1.0"
     inkscape:pageopacity="0.0"
     inkscape:pageshadow="2"
     inkscape:zoom="2.934351"
     inkscape:cx="144.21983"
     inkscape:cy="28.533711"
     inkscape:document-units="px"
     inkscape:current-layer="layer1"
     showgrid="true"
     inkscape:window-width="1280"
     inkscape:window-height="968"
     inkscape:window-x="-4"
     inkscape:window-y="-4"
     width="48px"
     height="48px"
     showborder="false"
     inkscape:showpageshadow="false" /&gt;
  &lt;metadata
     id="metadata7"&gt;
    &lt;rdf:RDF&gt;
      &lt;cc:Work
         rdf:about=""&gt;
        &lt;dc:format&gt;image/svg+xml&lt;/dc:format&gt;
        &lt;dc:type
           rdf:resource="http://purl.org/dc/dcmitype/StillImage" /&gt;
      &lt;/cc:Work&gt;
    &lt;/rdf:RDF&gt;
  &lt;/metadata&gt;
  &lt;g
     inkscape:label="Ebene 1"
     inkscape:groupmode="layer"
     id="layer1"
     transform="translate(-29.5,-42.959476)"&gt;
    &lt;a
       id="a3142"
       transform="matrix(1.0873906,0,0,1,-4.4741999,0)"&gt;
      &lt;path
         transform="translate(11.586889,5.2908993)"
         d="M 47.02914 47.36993 A 8.5197716 9.2013531 0 1 1  29.989597,47.36993 A 8.5197716 9.2013531 0 1 1  47.02914 47.36993 z"
         sodipodi:ry="9.2013531"
         sodipodi:rx="8.5197716"
         sodipodi:cy="47.36993"
         sodipodi:cx="38.509369"
         id="path2160"
         style="fill:none;fill-rule:evenodd;stroke:#000000;stroke-width:1px;stroke-linecap:butt;stroke-linejoin:miter;stroke-opacity:1"
         sodipodi:type="arc" /&gt;
    &lt;/a&gt;
    &lt;path
       sodipodi:type="arc"
       style="fill:none"
       id="path3134"
       sodipodi:cx="43.962021"
       sodipodi:cy="48.392303"
       sodipodi:rx="3.7486994"
       sodipodi:ry="0"
       d="M 47.71072 48.392303 A 3.7486994 0 0 1 1  40.213321,48.392303 A 3.7486994 0 0 1 1  47.71072 48.392303 z" /&gt;
    &lt;path
       style="fill:none;fill-rule:evenodd;stroke:#000000;stroke-width:1.24319649px;stroke-linecap:butt;stroke-linejoin:miter;stroke-opacity:1"
       d="M 50,61.33709 C 50,91.363211 50,92.247838 50,92.247838"
       id="path3136" /&gt;
    &lt;path
       style="fill:none;fill-rule:evenodd;stroke:#000000;stroke-width:1px;stroke-linecap:butt;stroke-linejoin:miter;stroke-opacity:1"
       d="M 69.760668,72.362183 C 69.760668,72.362183 69.760668,72.362183 50.239332,72.362183 C 30.239332,72.362183 30.239332,72.362183 30.239332,72.362183 L 30.239332,72.362183"
       id="path3138" /&gt;
    &lt;path
       style="fill:none;fill-rule:evenodd;stroke:#000000;stroke-width:1px;stroke-linecap:butt;stroke-linejoin:miter;stroke-opacity:1"
       d="M 30,111.45687 C 30,111.45687 30,111.45687 50,92.013532 C 70,111.45687 70,111.45687 70,111.45687"
       id="path3140" /&gt;
  &lt;/g&gt;
&lt;/svg&gt;
</y:Resource>
    </y:Resources>
  </data>
</graphml>
